…
``` r
res <- search_ebay("Damentaschen",
                   site = "DE",
                   sortOrder = "PricePlusShippingHighest",
                   nResults = 200,
                   aspectFilter = list(
                     Farbe = "Schwarz"
                     )
                   )

res[, c("title", "price", "currency")]
```

    #> # A tibble: 200 x 3
    #>    title                                                                            price currency
    #>    <chr>                                                                            <dbl> <chr>   
    #>  1 Hermes Kelly Bag 35 M-Stamp aus Krokodil Leder - schwarz *NEUWERTIG*             44900 EUR     
    #>  2 HERMES KELLY ALLIGATOR BAG 28 GRAPHITE SCHWARZ BLACK CROCODILE                   26990 EUR     
    #>  3 Hermes Kelly Bag 32 X-Stamp aus Eidechsenleder in schwarz *NEUWERTIG*            24900 EUR     
    #>  4 Hermes Birkin Bag In PLOMB , Birkin Tasche, 40 Cm, Togo, Palladium Hardware 2016 21500 EUR     
    #>  5 Hermes Kelly Bag 28 cm Kroko                                                     14000 EUR     
    #>  6 Hermes Kelly II Togo Schwarz GHW Retourne original Tasche Togo Leder Bag Noir    12500 EUR     
    #>  7 Hermès Birkin 35 Veau Togo schwarz - NEU, OVP mit Rechnung 11.2017               11900 EUR     
    #>  8 HERMES Birkin Bag 40, schwarz, Hardware Palladium, NEU mit Box und Rechnung      11800 EUR     
    #>  9 Original Hermès Kelly Sellier 32 Bag Tasche NEU OVP & Rechnung schwarz + Zubehör 11800 EUR     
    #> 10 Hermes Constance  aus Leder und Wildleder in Cognac *NEU*                        10990 EUR     
    #> # ... with 190 more rows
…
